…
search_hscode("機械")
#> # A tibble: 364 x 3
#>    hscode   hscode_name.C               hscode_name.E                      
#>    <chr>    <chr>                       <chr>                              
#>  1 40091240 已附配件之硫化橡膠管，供堆土機及類似機械配件用者… Tubes, pipes and hoses, of vulcani…
#>  2 4009124… 已附配件之硫化橡膠管，供堆土機及類似機械配件用者… Tubes, pipes and hoses, of vulcani…
#>  3 40094240 已附配件之硫化橡膠管，供堆土機及類似機械配件用者… Tubes, pipes and hoses, of vulcani…
#>  4 4009424… 已附配件之硫化橡膠管，供堆土機及類似機械配件用者… Tubes, pipes and hoses, of vulcani…
#>  5 401170   供農業或森林車及機械之用者  Of a kind used on agricultural or …
#>  6 40117010 具有「鯡骨」或類似面紋，供農業或森林車及機械之用者… "Having a \"herring-bone\" or simi…
#>  7 4011701… 具有「鯡骨」或類似面紋，供農業或森林車及機械之用者… "Having a \"\"herring-bone\"\" or …
#>  8 40117090 其他新橡膠氣胎，供農業或森林車及機械之用者… Other new pneumatic tyres, of rubb…
#>  9 4011709… 其他新橡膠氣胎，供農業或森林車及機械之用者… Other new pneumatic tyres, of rubb…
#> 10 401180   供建築、礦業或工業操作車及機械之用… Of a kind used on construction, mi…
#> # … with 354 more rows
```
…
